Spatial Analysis
…
filter etc.

Reading and Writing Data

Reading shapefiles

super straightforward

## Simple feature collection with 100 features and 14 fields
## geometry type:  MULTIPOLYGON
## dimension:      XY
## bbox:           xmin: -84.32385 ymin: 33.88199 xmax: -75.45698 ymax: 36.58965
## epsg (SRID):    4267
## proj4string:    +proj=longlat +datum=NAD27 +no_defs
## # A tibble: 100 x 15
##    AREA PERIMETER CNTY_ CNTY_ID NAME  FIPS  FIPSNO CRESS_ID BIR74 SID74
##   <dbl>     <dbl> <dbl>   <dbl> <chr> <chr>  <dbl>    <int> <dbl> <dbl>
## 1 0.114      1.44  1825    1825 Ashe  37009  37009        5  1091     1
## 2 0.061      1.23  1827    1827 Alle~ 37005  37005        3   487     0
## 3 0.143      1.63  1828    1828 Surry 37171  37171       86  3188     5
## # ... with 97 more rows, and 5 more variables: NWBIR74 <dbl>, BIR79 <dbl>,
## #   SID79 <dbl>, NWBIR79 <dbl>, geometry <MULTIPOLYGON []>
…
